{
	"val_loss": [2.937677968978882, 2.5621002216339113, 2.361268810272217, 2.234575270652771, 2.145345814704895, 2.0955631284713747, 2.0559962153434754, 2.0034265604019166, 2.000507435798645, 1.992873996257782, 1.954715256690979, 1.978944400548935, 1.9083351249694824, 1.936176592350006, 1.9136071264743806, 1.8861279373168944, 1.8861565947532655, 1.876689860343933, 1.8787350416183473, 1.8710694742202758, 1.8555057220458984, 1.887636600971222, 1.8626740860939026, 1.869173062324524, 1.8523367848396302, 1.8586614789962768, 1.8798620631694793, 1.838139461517334, 1.8281058118343354, 1.8374753987789154, 1.836630042552948, 1.8455483994483948, 1.8499276719093323, 1.8455714569091797, 1.8510875332355499, 1.8289056897163392, 1.8247953426837922, 1.8228149547576904, 1.8344351208209992, 1.8349701385498047, 1.8409472694396973, 1.822510964870453, 1.8277923374176026, 1.8263111424446106, 1.8417590765953065, 1.8474819974899293, 1.8402919366359711, 1.8444503331184388, 1.8382856678962707, 1.8372905764579772],
	"val_accuracy": [0.3317500054836273, 0.39800000190734863, 0.4375, 0.4675000011920929, 0.4827499985694885, 0.49399998784065247, 0.5005000233650208, 0.5139999985694885, 0.5145000219345093, 0.5205000042915344, 0.5222499966621399, 0.5210000276565552, 0.5322499871253967, 0.5295000076293945, 0.5352500081062317, 0.5454999804496765, 0.5410000085830688, 0.546999990940094, 0.5447499752044678, 0.5444999933242798, 0.5475000143051147, 0.5512499809265137, 0.5542500019073486, 0.5504999756813049, 0.5534999966621399, 0.5492500066757202, 0.5497499704360962, 0.5607500076293945, 0.5600000023841858, 0.5584999918937683, 0.5590000152587891, 0.5582500100135803, 0.5634999871253967, 0.5580000281333923, 0.5634999871253967, 0.5642499923706055, 0.5669999718666077, 0.565500020980835, 0.562250018119812, 0.5640000104904175, 0.5600000023841858, 0.5695000290870667, 0.5702499747276306, 0.5724999904632568, 0.5722500085830688, 0.5649999976158142, 0.5642499923706055, 0.5667499899864197, 0.5702499747276306, 0.5740000009536743],
	"loss": [3.9203600001335146, 2.551785209655762, 2.1380839169025423, 1.8908489561080932, 1.7170800652503968, 1.5859573378562928, 1.4730102677345276, 1.3846036698818207, 1.303340933918953, 1.2330553461313247, 1.1678668756484984, 1.1125598293542862, 1.062303097844124, 1.0108394300341605, 0.9666022345423698, 0.9266455241441727, 0.8885097895264625, 0.8541224739551544, 0.8219876379966736, 0.7913692188858986, 0.7654503089785576, 0.7381501882076263, 0.7097336848974228, 0.6872318576574326, 0.663170217692852, 0.6427315251231194, 0.6202001312375068, 0.6018442355096341, 0.5800578252673149, 0.561908469736576, 0.5469166224896908, 0.5331301877200604, 0.5141945514678955, 0.4993807102739811, 0.4873195308148861, 0.47351428988575933, 0.4620966377556324, 0.4483396387696266, 0.43552087765932085, 0.424400072991848, 0.41301073929667476, 0.40470013198256494, 0.39170531794428826, 0.38271699351072314, 0.37402738916873934, 0.3639956623613834, 0.356174652248621, 0.34693303172290324, 0.33903549106419084, 0.33167048448324205],
	"accuracy": [0.193, 0.40525, 0.4883125, 0.5421875, 0.578, 0.6038125, 0.629625, 0.657125, 0.67375, 0.691625, 0.7095, 0.7223125, 0.736375, 0.74825, 0.7635625, 0.775875, 0.78425, 0.79275, 0.80175, 0.809, 0.8213125, 0.8266875, 0.837125, 0.8403125, 0.8485625, 0.85425, 0.86325, 0.868375, 0.8735625, 0.8804375, 0.885375, 0.885125, 0.896, 0.8996875, 0.9030625, 0.9075, 0.9103125, 0.9160625, 0.91775, 0.921625, 0.92575, 0.929375, 0.93175, 0.9335625, 0.937875, 0.94075, 0.9443125, 0.9464375, 0.9486875, 0.951]
}
